results/digital/I2C/i2c_result.vcd
$date
	Wed Jul 22 13:09:23 2026
$end
$version
	Icarus Verilog
$end
$timescale
	1ps
$end
$scope module i2c_tb $end
$var wire 1 ! i2c_sda_out_pin_ctrl_n $end
$var wire 1 " i2c_sda_out_pin_ctrl $end
$var wire 1 # RTY_O $end
$var wire 1 $ ERR_O $end
$var wire 8 % DAT_O [7:0] $end
$var wire 1 & ACK_O $end
$var parameter 32 ' SCL_PERIOD $end
$var parameter 32 ( WIDTH $end
$var reg 8 ) ADDR_I [7:0] $end
$var reg 1 * CLK_I $end
$var reg 1 + CYC_I $end
$var reg 8 , DAT_I [7:0] $end
$var reg 1 - RST_I $end
$var reg 1 . STB_I $end
$var reg 1 / WE_I $end
$var reg 1 0 i2c_scl_in $end
$var reg 1 1 i2c_sda_in $end
$var reg 8 2 result [7:0] $end
$scope module my_controller $end
$var wire 8 3 ADDR_I [7:0] $end
$var wire 1 * CLK_I $end
$var wire 1 + CYC_I $end
$var wire 8 4 DAT_I [7:0] $end
$var wire 1 - RST_I $end
$var wire 1 . STB_I $end
$var wire 1 / WE_I $end
$var wire 2 5 i2c_next_state [1:0] $end
$var wire 1 0 i2c_scl_in $end
$var wire 1 1 i2c_sda_in $end
$var wire 1 ! i2c_sda_out_pin_ctrl_n $end
$var wire 1 6 start_condition $end
$var wire 1 7 stop_condition $end
$var wire 1 8 falling_edge_detected_delayed $end
$var parameter 8 9 ADDR_SET_REGISTER_ADDRESS $end
$var parameter 8 : CTRL_STATUS_REGISTER_ADDRESS $end
$var parameter 8 ; RECV_DATA_BUFFER_ADDRESS $end
$var parameter 8 < SEND_DATA_BUFFER_ADDRESS $end
$var parameter 2 = STATE_ADDR $end
$var parameter 2 > STATE_IDLE $end
$var parameter 2 ? STATE_READ $end
$var parameter 2 @ STATE_WRITE $end
$var parameter 32 A WIDTH $end
$var reg 1 & ACK_O $end
$var reg 8 B DAT_O [7:0] $end
$var reg 1 $ ERR_O $end
$var reg 1 # RTY_O $end
$var reg 8 C addr_set_register [7:0] $end
$var reg 8 D address_data_buffer_internal [7:0] $end
$var reg 8 E ctrl_status_register [7:0] $end
$var reg 2 F falling_edge_delayer [1:0] $end
$var reg 1 G falling_edge_detected $end
$var reg 2 H i2c_next_state_idle_block [1:0] $end
$var reg 2 I i2c_next_state_routine_block [1:0] $end
$var reg 1 " i2c_sda_out_pin_ctrl $end
$var reg 2 J i2c_state [1:0] $end
$var reg 4 K iteration [3:0] $end
$var reg 1 L previous_state $end
$var reg 1 M read_request_internal_flag $end
$var reg 1 N received_data_internal_flag $end
$var reg 8 O recv_data_buffer [7:0] $end
$var reg 1 P rising_edge_detected $end
$var reg 1 Q sda_previous_state $end
$var reg 8 R send_data_buffer [7:0] $end
$var reg 1 S write_request_internal_flag $end
$upscope $end
$scope task i2c_read_byte $end
$var reg 8 T data [7:0] $end
$var integer 32 U i [31:0] $end
$upscope $end
$scope task i2c_start $end
$upscope $end
$scope task i2c_stop $end
$upscope $end
$scope task i2c_write_byte $end
$var reg 8 V data [7:0] $end
$var integer 32 W i [31:0] $end
$upscope $end
$scope task wb_read_register $end
$var reg 1 X continue_cycle $end
$var reg 8 Y target_addr [7:0] $end
$var reg 8 Z target_data [7:0] $end
$upscope $end
$scope task wb_write_register $end
$var reg 1 [ continue_cycle $end
$var reg 8 \ target_addr [7:0] $end
$var reg 8 ] target_data [7:0] $end
$upscope $end
$upscope $end
$enddefinitions $end
$comment Show the parameter values. $end
$dumpall
b1000 A
b11 @
b10 ?
b0 >
b1 =
b1100 <
b1011 ;
b1101 :
b1010 9
b1000 (
b11111010 '
$end
#0
$dumpvars
bx ]
bx \
x[
bx Z
bx Y
xX
bx W
bx V
bx U
bx T
xS
bx R
xQ
xP
bx O
xN
xM
xL
bx K
bx J
bx I
b0 H
xG
bx F
bx E
bx D
bx C
bx B
x8
x7
06
bx 5
b0 4
b0 3
bx 2
11
10
0/
0.
1-
b0 ,
0+
0*
b0 )
x&
bx %
x$
x#
x"
x!
$end
#50000
17
b0 5
0#
0&
0$
b0 %
b0 B
0Q
0G
0L
b0 J
b0 K
b0 I
1[
b10101010 ]
b1010 \
1*
#100000
0*
0-
#150000
07
1P
1L
1Q
1+
1.
1/
b10101010 ,
b10101010 4
b1010 )
b1010 3
1*
#200000
0*
#250000
1&
b10101010 C
0P
1*
#300000
0*
#350000
0&
b0 )
b0 3
b0 ,
b0 4
0/
0.
0[
b1100 \
1*
#400000
0*
#450000
1.
1/
b10101010 ,
b10101010 4
b1100 )
b1100 3
1*
#500000
0*
#550000
1&
b10101010 R
1*
#600000
0*
#650000
0&
b0 )
b0 3
b0 ,
b0 4
0/
0+
0.
1*
#700000
0*
#750000
1*
#800000
0*
#850000
1*
#900000
0*
#950000
1*
#1000000
0*
#1050000
1*
#1100000
0*
#1150000
1*
#1200000
0*
#1250000
1G
0L
1*
00
#1300000
0*
#1350000
0G
1*
#1400000
0*
#1450000
1*
#1500000
0*
#1550000
1*
#1600000
0*
#1650000
1*
#1700000
0*
#1750000
1*
#1800000
0*
#1850000
1*
#1900000
0*
#1950000
1*
#2000000
0*
#2050000
1*
#2100000
0*
#2150000
1*
#2200000
0*
#2250000
1*
#2300000
0*
#2350000
1*
#2400000
0*
#2450000
1*
#2500000
0*
10
#2550000
1P
1L
1*
#2600000
0*
#2650000
0P
1*
#2700000
0*
#2750000
1*
#2800000
0*
#2850000
1*
#2900000
0*
#2950000
1*
#3000000
0*
#3050000
1*
#3100000
0*
#3120000
b1 5
b1 H
16
01
#3150000
06
b0 H
b1 I
b1 J
0Q
1*
#3200000
0*
#3250000
0S
0M
1*
#3300000
0*
#3350000
1*
#3400000
0*
#3450000
1*
#3500000
0*
#3550000
1*
#3600000
0*
#3650000
1*
#3700000
0*
#3750000
1G
0L
1*
00
#3800000
0*
#3850000
0G
1*
#3900000
0*
#3950000
1*
#4000000
0*
#4050000
1*
#4100000
0*
#4150000
1*
#4200000
0*
#4250000
1*
#4300000
0*
#4350000
1*
#4370000
11
b111 W
b10101011 V
#4400000
0*
#4450000
1Q
1*
#4500000
0*
#4550000
1*
#4600000
0*
#4650000
1*
#4700000
0*
#4750000
1*
#4800000
0*
#4850000
1*
#4900000
0*
#4950000
1*
#5000000
0*
10
#5050000
1P
1L
1*
#5100000
0*
#5150000
b1 K
b1xxxxxxx D
0P
1*
#5200000
0*
#5250000
1*
#5300000
0*
#5350000
1*
#5400000
0*
#5450000
1*
#5500000
0*
#5550000
1*
#5600000
0*
#5650000
1*
#5700000
0*
#5750000
1*
#5800000
0*
#5850000
1*
#5900000
0*
#5950000
1*
#6000000
0*
#6050000
1*
#6100000
0*
#6150000
1*
#6200000
0*
#6250000
1G
0L
1*
00
#6300000
0*
#6350000
0G
1*
#6400000
0*
#6450000
1*
#6500000
0*
#6550000
1*
#6600000
0*
#6650000
1*
#6700000
0*
#6750000
1*
#6800000
0*
#6850000
1*
#6870000
01
b110 W
#6900000
0*
#6950000
0Q
1*
#7000000
0*
#7050000
1*
#7100000
0*
#7150000
1*
#7200000
0*
#7250000
1*
#7300000
0*
#7350000
1*
#7400000
0*
#7450000
1*
#7500000
0*
10
#7550000
1P
1L
1*
#7600000
0*
#7650000
0P
b10 K
b10xxxxxx D
1*
#7700000
0*
#7750000
1*
#7800000
0*
#7850000
1*
#7900000
0*
#7950000
1*
#8000000
0*
#8050000
1*
#8100000
0*
#8150000
1*
#8200000
0*
#8250000
1*
#8300000
0*
#8350000
1*
#8400000
0*
#8450000
1*
#8500000
0*
#8550000
1*
#8600000
0*
#8650000
1*
#8700000
0*
#8750000
1G
0L
1*
00
#8800000
0*
#8850000
0G
1*
#8900000
0*
#8950000
1*
#9000000
0*
#9050000
1*
#9100000
0*
#9150000
1*
#9200000
0*
#9250000
1*
#9300000
0*
#9350000
1*
#9370000
11
b101 W
#9400000
0*
#9450000
1Q
1*
#9500000
0*
#9550000
1*
#9600000
0*
#9650000
1*
#9700000
0*
#9750000
1*
#9800000
0*
#9850000
1*
#9900000
0*
#9950000
1*
#10000000
0*
10
#10050000
1P
1L
1*
#10100000
0*
#10150000
b11 K
b101xxxxx D
0P
1*
#10200000
0*
#10250000
1*
#10300000
0*
#10350000
1*
#10400000
0*
#10450000
1*
#10500000
0*
#10550000
1*
#10600000
0*
#10650000
1*
#10700000
0*
#10750000
1*
#10800000
0*
#10850000
1*
#10900000
0*
#10950000
1*
#11000000
0*
#11050000
1*
#11100000
0*
#11150000
1*
#11200000
0*
#11250000
1G
0L
1*
00
#11300000
0*
#11350000
0G
1*
#11400000
0*
#11450000
1*
#11500000
0*
#11550000
1*
#11600000
0*
#11650000
1*
#11700000
0*
#11750000
1*
#11800000
0*
#11850000
1*
#11870000
01
b100 W
#11900000
0*
#11950000
0Q
1*
#12000000
0*
#12050000
1*
#12100000
0*
#12150000
1*
#12200000
0*
#12250000
1*
#12300000
0*
#12350000
1*
#12400000
0*
#12450000
1*
#12500000
0*
10
#12550000
1P
1L
1*
#12600000
0*
#12650000
0P
b100 K
b1010xxxx D
1*
#12700000
0*
#12750000
1*
#12800000
0*
#12850000
1*
#12900000
0*
#12950000
1*
#13000000
0*
#13050000
1*
#13100000
0*
#13150000
1*
#13200000
0*
#13250000
1*
#13300000
0*
#13350000
1*
#13400000
0*
#13450000
1*
#13500000
0*
#13550000
1*
#13600000
0*
#13650000
1*
#13700000
0*
#13750000
1G
0L
1*
00
#13800000
0*
#13850000
0G
1*
#13900000
0*
#13950000
1*
#14000000
0*
#14050000
1*
#14100000
0*
#14150000
1*
#14200000
0*
#14250000
1*
#14300000
0*
#14350000
1*
#14370000
11
b11 W
#14400000
0*
#14450000
1Q
1*
#14500000
0*
#14550000
1*
#14600000
0*
#14650000
1*
#14700000
0*
#14750000
1*
#14800000
0*
#14850000
1*
#14900000
0*
#14950000
1*
#15000000
0*
10
#15050000
1P
1L
1*
#15100000
0*
#15150000
b101 K
b10101xxx D
0P
1*
#15200000
0*
#15250000
1*
#15300000
0*
#15350000
1*
#15400000
0*
#15450000
1*
#15500000
0*
#15550000
1*
#15600000
0*
#15650000
1*
#15700000
0*
#15750000
1*
#15800000
0*
#15850000
1*
#15900000
0*
#15950000
1*
#16000000
0*
#16050000
1*
#16100000
0*
#16150000
1*
#16200000
0*
#16250000
1G
0L
1*
00
#16300000
0*
#16350000
0G
1*
#16400000
0*
#16450000
1*
#16500000
0*
#16550000
1*
#16600000
0*
#16650000
1*
#16700000
0*
#16750000
1*
#16800000
0*
#16850000
1*
#16870000
01
b10 W
#16900000
0*
#16950000
0Q
1*
#17000000
0*
#17050000
1*
#17100000
0*
#17150000
1*
#17200000
0*
#17250000
1*
#17300000
0*
#17350000
1*
#17400000
0*
#17450000
1*
#17500000
0*
10
#17550000
1P
1L
1*
#17600000
0*
#17650000
0P
b110 K
b101010xx D
1*
#17700000
0*
#17750000
1*
#17800000
0*
#17850000
1*
#17900000
0*
#17950000
1*
#18000000
0*
#18050000
1*
#18100000
0*
#18150000
1*
#18200000
0*
#18250000
1*
#18300000
0*
#18350000
1*
#18400000
0*
#18450000
1*
#18500000
0*
#18550000
1*
#18600000
0*
#18650000
1*
#18700000
0*
#18750000
1G
0L
1*
00
#18800000
0*
#18850000
0G
1*
#18900000
0*
#18950000
1*
#19000000
0*
#19050000
1*
#19100000
0*
#19150000
1*
#19200000
0*
#19250000
1*
#19300000
0*
#19350000
1*
#19370000
11
b1 W
#19400000
0*
#19450000
1Q
1*
#19500000
0*
#19550000
1*
#19600000
0*
#19650000
1*
#19700000
0*
#19750000
1*
#19800000
0*
#19850000
1*
#19900000
0*
#19950000
1*
#20000000
0*
10
#20050000
1P
1L
1*
#20100000
0*
#20150000
b111 K
b1010101x D
0P
1*
#20200000
0*
#20250000
1*
#20300000
0*
#20350000
1*
#20400000
0*
#20450000
1*
#20500000
0*
#20550000
1*
#20600000
0*
#20650000
1*
#20700000
0*
#20750000
1*
#20800000
0*
#20850000
1*
#20900000
0*
#20950000
1*
#21000000
0*
#21050000
1*
#21100000
0*
#21150000
1*
#21200000
0*
#21250000
1G
0L
1*
00
#21300000
0*
#21350000
0G
1*
#21400000
0*
#21450000
1*
#21500000
0*
#21550000
1*
#21600000
0*
#21650000
1*
#21700000
0*
#21750000
1*
#21800000
0*
#21850000
1*
#21870000
b0 W
#21900000
0*
#21950000
1*
#22000000
0*
#22050000
1*
#22100000
0*
#22150000
1*
#22200000
0*
#22250000
1*
#22300000
0*
#22350000
1*
#22400000
0*
#22450000
1*
#22500000
0*
10
#22550000
1P
1L
1*
#22600000
0*
#22650000
0P
b1000 K
b10101011 D
1*
#22700000
0*
#22750000
1*
#22800000
0*
#22850000
1*
#22900000
0*
#22950000
1*
#23000000
0*
#23050000
1*
#23100000
0*
#23150000
1*
#23200000
0*
#23250000
1*
#23300000
0*
#23350000
1*
#23400000
0*
#23450000
1*
#23500000
0*
#23550000
1*
#23600000
0*
#23650000
1*
#23700000
0*
#23750000
1G
0L
1*
00
#23800000
0*
#23850000
0G
1*
#23900000
0*
#23950000
1*
#24000000
0*
#24050000
1*
#24100000
0*
#24150000
1*
#24200000
0*
#24250000
1*
#24300000
0*
#24350000
1*
#24370000
b11111111111111111111111111111111 W
#24400000
0*
#24450000
1*
#24500000
0*
#24550000
1*
#24600000
0*
#24650000
1*
#24700000
0*
#24750000
1*
#24800000
0*
#24850000
1*
#24900000
0*
#24950000
1*
#25000000
0*
10
#25050000
1P
1L
1*
#25100000
0*
#25150000
b11 5
1!
1S
b11 I
0"
b0 K
0P
1*
#25200000
0*
#25250000
b11 J
0S
1*
#25300000
0*
#25350000
1*
#25400000
0*
#25450000
1*
#25500000
0*
#25550000
1*
#25600000
0*
#25650000
1*
#25700000
0*
#25750000
1*
#25800000
0*
#25850000
1*
#25900000
0*
#25950000
1*
#26000000
0*
#26050000
1*
#26100000
0*
#26150000
1*
#26200000
0*
#26250000
1G
0L
1*
00
#26300000
0*
#26350000
0!
1"
0G
1*
#26400000
0*
#26450000
1*
#26500000
0*
#26550000
1*
#26600000
0*
#26650000
1*
#26700000
0*
#26750000
1*
#26800000
0*
#26850000
1*
#26870000
b1xxxxxxx T
b111 U
#26900000
0*
#26950000
1*
#27000000
0*
#27050000
1*
#27100000
0*
#27150000
1*
#27200000
0*
#27250000
1*
#27300000
0*
#27350000
1*
#27400000
0*
#27450000
1*
#27500000
0*
10
#27550000
1P
1L
1*
#27600000
0*
#27650000
0P
b1 K
1*
#27700000
0*
#27750000
1*
#27800000
0*
#27850000
1*
#27900000
0*
#27950000
1*
#28000000
0*
#28050000
1*
#28100000
0*
#28150000
1*
#28200000
0*
#28250000
1*
#28300000
0*
#28350000
1*
#28400000
0*
#28450000
1*
#28500000
0*
#28550000
1*
#28600000
0*
#28650000
1*
#28700000
0*
#28750000
1G
0L
1*
00
#28800000
0*
#28850000
1!
0G
0"
1*
#28900000
0*
#28950000
1*
#29000000
0*
#29050000
1*
#29100000
0*
#29150000
1*
#29200000
0*
#29250000
1*
#29300000
0*
#29350000
1*
#29370000
b10xxxxxx T
b110 U
#29400000
0*
#29450000
1*
#29500000
0*
#29550000
1*
#29600000
0*
#29650000
1*
#29700000
0*
#29750000
1*
#29800000
0*
#29850000
1*
#29900000
0*
#29950000
1*
#30000000
0*
10
#30050000
1P
1L
1*
#30100000
0*
#30150000
b10 K
0P
1*
#30200000
0*
#30250000
1*
#30300000
0*
#30350000
1*
#30400000
0*
#30450000
1*
#30500000
0*
#30550000
1*
#30600000
0*
#30650000
1*
#30700000
0*
#30750000
1*
#30800000
0*
#30850000
1*
#30900000
0*
#30950000
1*
#31000000
0*
#31050000
1*
#31100000
0*
#31150000
1*
#31200000
0*
#31250000
1G
0L
1*
00
#31300000
0*
#31350000
0!
1"
0G
1*
#31400000
0*
#31450000
1*
#31500000
0*
#31550000
1*
#31600000
0*
#31650000
1*
#31700000
0*
#31750000
1*
#31800000
0*
#31850000
1*
#31870000
b101xxxxx T
b101 U
#31900000
0*
#31950000
1*
#32000000
0*
#32050000
1*
#32100000
0*
#32150000
1*
#32200000
0*
#32250000
1*
#32300000
0*
#32350000
1*
#32400000
0*
#32450000
1*
#32500000
0*
10
#32550000
1P
1L
1*
#32600000
0*
#32650000
0P
b11 K
1*
#32700000
0*
#32750000
1*
#32800000
0*
#32850000
1*
#32900000
0*
#32950000
1*
#33000000
0*
#33050000
1*
#33100000
0*
#33150000
1*
#33200000
0*
#33250000
1*
#33300000
0*
#33350000
1*
#33400000
0*
#33450000
1*
#33500000
0*
#33550000
1*
#33600000
0*
#33650000
1*
#33700000
0*
#33750000
1G
0L
1*
00
#33800000
0*
#33850000
1!
0G
0"
1*
#33900000
0*
#33950000
1*
#34000000
0*
#34050000
1*
#34100000
0*
#34150000
1*
#34200000
0*
#34250000
1*
#34300000
0*
#34350000
1*
#34370000
b1010xxxx T
b100 U
#34400000
0*
#34450000
1*
#34500000
0*
#34550000
1*
#34600000
0*
#34650000
1*
#34700000
0*
#34750000
1*
#34800000
0*
#34850000
1*
#34900000
0*
#34950000
1*
#35000000
0*
10
#35050000
1P
1L
1*
#35100000
0*
#35150000
b100 K
0P
1*
#35200000
0*
#35250000
1*
#35300000
0*
#35350000
1*
#35400000
0*
#35450000
1*
#35500000
0*
#35550000
1*
#35600000
0*
#35650000
1*
#35700000
0*
#35750000
1*
#35800000
0*
#35850000
1*
#35900000
0*
#35950000
1*
#36000000
0*
#36050000
1*
#36100000
0*
#36150000
1*
#36200000
0*
#36250000
1G
0L
1*
00
#36300000
0*
#36350000
0!
1"
0G
1*
#36400000
0*
#36450000
1*
#36500000
0*
#36550000
1*
#36600000
0*
#36650000
1*
#36700000
0*
#36750000
1*
#36800000
0*
#36850000
1*
#36870000
b10101xxx T
b11 U
#36900000
0*
#36950000
1*
#37000000
0*
#37050000
1*
#37100000
0*
#37150000
1*
#37200000
0*
#37250000
1*
#37300000
0*
#37350000
1*
#37400000
0*
#37450000
1*
#37500000
0*
10
#37550000
1P
1L
1*
#37600000
0*
#37650000
0P
b101 K
1*
#37700000
0*
#37750000
1*
#37800000
0*
#37850000
1*
#37900000
0*
#37950000
1*
#38000000
0*
#38050000
1*
#38100000
0*
#38150000
1*
#38200000
0*
#38250000
1*
#38300000
0*
#38350000
1*
#38400000
0*
#38450000
1*
#38500000
0*
#38550000
1*
#38600000
0*
#38650000
1*
#38700000
0*
#38750000
1G
0L
1*
00
#38800000
0*
#38850000
1!
0G
0"
1*
#38900000
0*
#38950000
1*
#39000000
0*
#39050000
1*
#39100000
0*
#39150000
1*
#39200000
0*
#39250000
1*
#39300000
0*
#39350000
1*
#39370000
b101010xx T
b10 U
#39400000
0*
#39450000
1*
#39500000
0*
#39550000
1*
#39600000
0*
#39650000
1*
#39700000
0*
#39750000
1*
#39800000
0*
#39850000
1*
#39900000
0*
#39950000
1*
#40000000
0*
10
#40050000
1P
1L
1*
#40100000
0*
#40150000
b110 K
0P
1*
#40200000
0*
#40250000
1*
#40300000
0*
#40350000
1*
#40400000
0*
#40450000
1*
#40500000
0*
#40550000
1*
#40600000
0*
#40650000
1*
#40700000
0*
#40750000
1*
#40800000
0*
#40850000
1*
#40900000
0*
#40950000
1*
#41000000
0*
#41050000
1*
#41100000
0*
#41150000
1*
#41200000
0*
#41250000
1G
0L
1*
00
#41300000
0*
#41350000
0!
1"
0G
1*
#41400000
0*
#41450000
1*
#41500000
0*
#41550000
1*
#41600000
0*
#41650000
1*
#41700000
0*
#41750000
1*
#41800000
0*
#41850000
1*
#41870000
b1010101x T
b1 U
#41900000
0*
#41950000
1*
#42000000
0*
#42050000
1*
#42100000
0*
#42150000
1*
#42200000
0*
#42250000
1*
#42300000
0*
#42350000
1*
#42400000
0*
#42450000
1*
#42500000
0*
10
#42550000
1P
1L
1*
#42600000
0*
#42650000
0P
b111 K
1*
#42700000
0*
#42750000
1*
#42800000
0*
#42850000
1*
#42900000
0*
#42950000
1*
#43000000
0*
#43050000
1*
#43100000
0*
#43150000
1*
#43200000
0*
#43250000
1*
#43300000
0*
#43350000
1*
#43400000
0*
#43450000
1*
#43500000
0*
#43550000
1*
#43600000
0*
#43650000
1*
#43700000
0*
#43750000
1G
0L
1*
00
#43800000
0*
#43850000
1!
0G
0"
1*
#43900000
0*
#43950000
1*
#44000000
0*
#44050000
1*
#44100000
0*
#44150000
1*
#44200000
0*
#44250000
1*
#44300000
0*
#44350000
1*
#44370000
b10101010 T
b0 U
#44400000
0*
#44450000
1*
#44500000
0*
#44550000
1*
#44600000
0*
#44650000
1*
#44700000
0*
#44750000
1*
#44800000
0*
#44850000
1*
#44900000
0*
#44950000
1*
#45000000
0*
10
#45050000
1P
1L
1*
#45100000
0*
#45150000
b1000 K
0P
1*
#45200000
0*
#45250000
1*
#45300000
0*
#45350000
1*
#45400000
0*
#45450000
1*
#45500000
0*
#45550000
1*
#45600000
0*
#45650000
1*
#45700000
0*
#45750000
1*
#45800000
0*
#45850000
1*
#45900000
0*
#45950000
1*
#46000000
0*
#46050000
1*
#46100000
0*
#46150000
1*
#46200000
0*
#46250000
1G
0L
1*
00
#46300000
0*
#46350000
0!
1"
0G
1*
#46400000
0*
#46450000
1*
#46500000
0*
#46550000
1*
#46600000
0*
#46650000
1*
#46700000
0*
#46750000
1*
#46800000
0*
#46850000
1*
#46870000
b11111111111111111111111111111111 U
#46900000
0*
#46950000
1*
#47000000
0*
#47050000
1*
#47100000
0*
#47150000
1*
#47200000
0*
#47250000
1*
#47300000
0*
#47350000
1*
#47400000
0*
#47450000
1*
#47500000
0*
10
#47550000
1P
1L
1*
#47600000
0*
#47650000
b0 5
0P
b0 I
b0 K
1*
#47700000
0*
#47750000
b0 J
1*
#47800000
0*
#47850000
1*
#47900000
0*
#47950000
1*
#48000000
0*
#48050000
1*
#48100000
0*
#48150000
1*
#48200000
0*
#48250000
1*
#48300000
0*
#48350000
1*
#48400000
0*
#48450000
1*
#48500000
0*
#48550000
1*
#48600000
0*
#48650000
1*
#48700000
0*
#48750000
1G
0L
1*
00
#48800000
0*
#48850000
0G
1*
#48900000
0*
#48950000
1*
#49000000
0*
#49050000
1*
#49100000
0*
#49150000
1*
#49200000
0*
#49250000
1*
#49300000
0*
#49350000
1*
#49370000
b10101010 2
#49400000
0*
#49450000
1*
#49500000
0*
#49550000
1*
#49600000
0*
#49650000
1*
#49700000
0*
#49750000
1*
#49800000
0*
#49850000
1*
#49900000
0*
#49950000
1*
#50000000
0*
10
#50050000
1P
1L
1*
#50100000
0*
#50150000
0P
1*
#50200000
0*
#50250000
1*
#50300000
0*
#50350000
1*
#50400000
0*
#50450000
1*
#50500000
0*
#50550000
1*
#50600000
0*
#50620000
b1 5
b1 H
16
01
#50650000
06
b0 H
0Q
b1 J
b1 I
1*
#50700000
0*
#50750000
1*
#50800000
0*
#50850000
1*
#50900000
0*
#50950000
1*
#51000000
0*
#51050000
1*
#51100000
0*
#51150000
1*
#51200000
0*
#51250000
1G
0L
1*
00
#51300000
0*
#51350000
0G
1*
#51400000
0*
#51450000
1*
#51500000
0*
#51550000
1*
#51600000
0*
#51650000
1*
#51700000
0*
#51750000
1*
#51800000
0*
#51850000
1*
#51870000
11
b111 W
b10101010 V
#51900000
0*
#51950000
1Q
1*
#52000000
0*
#52050000
1*
#52100000
0*
#52150000
1*
#52200000
0*
#52250000
1*
#52300000
0*
#52350000
1*
#52400000
0*
#52450000
1*
#52500000
0*
10
#52550000
1P
1L
1*
#52600000
0*
#52650000
0P
b1 K
1*
#52700000
0*
#52750000
1*
#52800000
0*
#52850000
1*
#52900000
0*
#52950000
1*
#53000000
0*
#53050000
1*
#53100000
0*
#53150000
1*
#53200000
0*
#53250000
1*
#53300000
0*
#53350000
1*
#53400000
0*
#53450000
1*
#53500000
0*
#53550000
1*
#53600000
0*
#53650000
1*
#53700000
0*
#53750000
1G
0L
1*
00
#53800000
0*
#53850000
0G
1*
#53900000
0*
#53950000
1*
#54000000
0*
#54050000
1*
#54100000
0*
#54150000
1*
#54200000
0*
#54250000
1*
#54300000
0*
#54350000
1*
#54370000
01
b110 W
#54400000
0*
#54450000
0Q
1*
#54500000
0*
#54550000
1*
#54600000
0*
#54650000
1*
#54700000
0*
#54750000
1*
#54800000
0*
#54850000
1*
#54900000
0*
#54950000
1*
#55000000
0*
10
#55050000
1P
1L
1*
#55100000
0*
#55150000
b10 K
0P
1*
#55200000
0*
#55250000
1*
#55300000
0*
#55350000
1*
#55400000
0*
#55450000
1*
#55500000
0*
#55550000
1*
#55600000
0*
#55650000
1*
#55700000
0*
#55750000
1*
#55800000
0*
#55850000
1*
#55900000
0*
#55950000
1*
#56000000
0*
#56050000
1*
#56100000
0*
#56150000
1*
#56200000
0*
#56250000
1G
0L
1*
00
#56300000
0*
#56350000
0G
1*
#56400000
0*
#56450000
1*
#56500000
0*
#56550000
1*
#56600000
0*
#56650000
1*
#56700000
0*
#56750000
1*
#56800000
0*
#56850000
1*
#56870000
11
b101 W
#56900000
0*
#56950000
1Q
1*
#57000000
0*
#57050000
1*
#57100000
0*
#57150000
1*
#57200000
0*
#57250000
1*
#57300000
0*
#57350000
1*
#57400000
0*
#57450000
1*
#57500000
0*
10
#57550000
1P
1L
1*
#57600000
0*
#57650000
0P
b11 K
1*
#57700000
0*
#57750000
1*
#57800000
0*
#57850000
1*
#57900000
0*
#57950000
1*
#58000000
0*
#58050000
1*
#58100000
0*
#58150000
1*
#58200000
0*
#58250000
1*
#58300000
0*
#58350000
1*
#58400000
0*
#58450000
1*
#58500000
0*
#58550000
1*
#58600000
0*
#58650000
1*
#58700000
0*
#58750000
1G
0L
1*
00
#58800000
0*
#58850000
0G
1*
#58900000
0*
#58950000
1*
#59000000
0*
#59050000
1*
#59100000
0*
#59150000
1*
#59200000
0*
#59250000
1*
#59300000
0*
#59350000
1*
#59370000
01
b100 W
#59400000
0*
#59450000
0Q
1*
#59500000
0*
#59550000
1*
#59600000
0*
#59650000
1*
#59700000
0*
#59750000
1*
#59800000
0*
#59850000
1*
#59900000
0*
#59950000
1*
#60000000
0*
10
#60050000
1P
1L
1*
#60100000
0*
#60150000
b100 K
0P
1*
#60200000
0*
#60250000
1*
#60300000
0*
#60350000
1*
#60400000
0*
#60450000
1*
#60500000
0*
#60550000
1*
#60600000
0*
#60650000
1*
#60700000
0*
#60750000
1*
#60800000
0*
#60850000
1*
#60900000
0*
#60950000
1*
#61000000
0*
#61050000
1*
#61100000
0*
#61150000
1*
#61200000
0*
#61250000
1G
0L
1*
00
#61300000
0*
#61350000
0G
1*
#61400000
0*
#61450000
1*
#61500000
0*
#61550000
1*
#61600000
0*
#61650000
1*
#61700000
0*
#61750000
1*
#61800000
0*
#61850000
1*
#61870000
11
b11 W
#61900000
0*
#61950000
1Q
1*
#62000000
0*
#62050000
1*
#62100000
0*
#62150000
1*
#62200000
0*
#62250000
1*
#62300000
0*
#62350000
1*
#62400000
0*
#62450000
1*
#62500000
0*
10
#62550000
1P
1L
1*
#62600000
0*
#62650000
0P
b101 K
1*
#62700000
0*
#62750000
1*
#62800000
0*
#62850000
1*
#62900000
0*
#62950000
1*
#63000000
0*
#63050000
1*
#63100000
0*
#63150000
1*
#63200000
0*
#63250000
1*
#63300000
0*
#63350000
1*
#63400000
0*
#63450000
1*
#63500000
0*
#63550000
1*
#63600000
0*
#63650000
1*
#63700000
0*
#63750000
1G
0L
1*
00
#63800000
0*
#63850000
0G
1*
#63900000
0*
#63950000
1*
#64000000
0*
#64050000
1*
#64100000
0*
#64150000
1*
#64200000
0*
#64250000
1*
#64300000
0*
#64350000
1*
#64370000
01
b10 W
#64400000
0*
#64450000
0Q
1*
#64500000
0*
#64550000
1*
#64600000
0*
#64650000
1*
#64700000
0*
#64750000
1*
#64800000
0*
#64850000
1*
#64900000
0*
#64950000
1*
#65000000
0*
10
#65050000
1P
1L
1*
#65100000
0*
#65150000
b110 K
0P
1*
#65200000
0*
#65250000
1*
#65300000
0*
#65350000
1*
#65400000
0*
#65450000
1*
#65500000
0*
#65550000
1*
#65600000
0*
#65650000
1*
#65700000
0*
#65750000
1*
#65800000
0*
#65850000
1*
#65900000
0*
#65950000
1*
#66000000
0*
#66050000
1*
#66100000
0*
#66150000
1*
#66200000
0*
#66250000
1G
0L
1*
00
#66300000
0*
#66350000
0G
1*
#66400000
0*
#66450000
1*
#66500000
0*
#66550000
1*
#66600000
0*
#66650000
1*
#66700000
0*
#66750000
1*
#66800000
0*
#66850000
1*
#66870000
11
b1 W
#66900000
0*
#66950000
1Q
1*
#67000000
0*
#67050000
1*
#67100000
0*
#67150000
1*
#67200000
0*
#67250000
1*
#67300000
0*
#67350000
1*
#67400000
0*
#67450000
1*
#67500000
0*
10
#67550000
1P
1L
1*
#67600000
0*
#67650000
0P
b111 K
1*
#67700000
0*
#67750000
1*
#67800000
0*
#67850000
1*
#67900000
0*
#67950000
1*
#68000000
0*
#68050000
1*
#68100000
0*
#68150000
1*
#68200000
0*
#68250000
1*
#68300000
0*
#68350000
1*
#68400000
0*
#68450000
1*
#68500000
0*
#68550000
1*
#68600000
0*
#68650000
1*
#68700000
0*
#68750000
1G
0L
1*
00
#68800000
0*
#68850000
0G
1*
#68900000
0*
#68950000
1*
#69000000
0*
#69050000
1*
#69100000
0*
#69150000
1*
#69200000
0*
#69250000
1*
#69300000
0*
#69350000
1*
#69370000
01
b0 W
#69400000
0*
#69450000
0Q
1*
#69500000
0*
#69550000
1*
#69600000
0*
#69650000
1*
#69700000
0*
#69750000
1*
#69800000
0*
#69850000
1*
#69900000
0*
#69950000
1*
#70000000
0*
10
#70050000
1P
1L
1*
#70100000
0*
#70150000
b1000 K
b10101010 D
0P
1*
#70200000
0*
#70250000
1*
#70300000
0*
#70350000
1*
#70400000
0*
